<?xml version="1.0" encoding="utf-8"?>
<!-- Generator: Adobe Illustrator 25.2.3, SVG Export Plug-In . SVG Version: 6.00 Build 0)  -->
<svg version="1.1" id="Camada_1" xmlns="http://www.w3.org/2000/svg" xmlns:xlink="http://www.w3.org/1999/xlink" x="0px" y="0px"
	 viewBox="0 0 300 30" style="enable-background:new 0 0 300 30;" xml:space="preserve">
<style type="text/css">
	.st0{fill:#FFFFFF;fill-opacity:0;}
</style>
<g>
	<g>
		<rect x="15" y="3.9" width="1.8" height="20.9"/>
	</g>
	<g>
		<rect x="48.5" y="3.9" width="1.8" height="20.9"/>
	</g>
	<g>
		<rect x="283.2" y="3.9" width="1.8" height="20.9"/>
	</g>
	<g>
		<rect x="82.1" y="3.9" width="1.8" height="20.9"/>
	</g>
	<g>
		<rect x="216.1" y="3.9" width="1.8" height="20.9"/>
	</g>
	<g>
		<rect x="115.6" y="3.9" width="1.8" height="20.9"/>
	</g>
	<g>
		<rect x="249.7" y="3.9" width="1.8" height="20.9"/>
	</g>
	<g>
		<rect x="182.6" y="3.9" width="1.8" height="20.9"/>
	</g>
	<g>
		<rect x="149.1" y="3.9" width="1.8" height="20.9"/>
	</g>
	<g>
		<rect x="118.9" y="3.9" width="1.8" height="11.2"/>
	</g>
	<g>
		<rect x="122.3" y="3.9" width="1.8" height="11.2"/>
	</g>
	<g>
		<rect x="129" y="3.9" width="1.8" height="11.2"/>
	</g>
	<g>
		<rect x="132.3" y="3.9" width="1.8" height="15.4"/>
	</g>
	<g>
		<rect x="139" y="3.9" width="1.8" height="11.2"/>
	</g>
	<g>
		<rect x="142.4" y="3.9" width="1.8" height="11.2"/>
	</g>
	<g>
		<rect x="145.8" y="3.9" width="1.8" height="11.2"/>
	</g>
	<g>
		<rect x="135.7" y="3.9" width="1.8" height="11.2"/>
	</g>
	<g>
		<rect x="125.6" y="3.9" width="1.8" height="11.2"/>
	</g>
	<g>
		<rect x="85.4" y="3.9" width="1.8" height="11.2"/>
	</g>
	<g>
		<rect x="88.8" y="3.9" width="1.8" height="11.2"/>
	</g>
	<g>
		<rect x="95.5" y="3.9" width="1.8" height="11.2"/>
	</g>
	<g>
		<rect x="98.8" y="3.9" width="1.8" height="15.4"/>
	</g>
	<g>
		<rect x="105.5" y="3.9" width="1.8" height="11.2"/>
	</g>
	<g>
		<rect x="108.9" y="3.9" width="1.8" height="11.2"/>
	</g>
	<g>
		<rect x="112.2" y="3.9" width="1.8" height="11.2"/>
	</g>
	<g>
		<rect x="102.2" y="3.9" width="1.8" height="11.2"/>
	</g>
	<g>
		<rect x="92.1" y="3.9" width="1.8" height="11.2"/>
	</g>
	<g>
		<rect x="51.9" y="3.9" width="1.8" height="11.2"/>
	</g>
	<g>
		<rect x="55.2" y="3.9" width="1.8" height="11.2"/>
	</g>
	<g>
		<rect x="61.9" y="3.9" width="1.8" height="11.2"/>
	</g>
	<g>
		<rect x="65.3" y="3.9" width="1.8" height="15.4"/>
	</g>
	<g>
		<rect x="72" y="3.9" width="1.8" height="11.2"/>
	</g>
	<g>
		<rect x="75.3" y="3.9" width="1.8" height="11.2"/>
	</g>
	<g>
		<rect x="78.7" y="3.9" width="1.8" height="11.2"/>
	</g>
	<g>
		<rect x="68.6" y="3.9" width="1.8" height="11.2"/>
	</g>
	<g>
		<rect x="58.6" y="3.9" width="1.8" height="11.2"/>
	</g>
	<g>
		<rect x="18.4" y="3.9" width="1.8" height="11.2"/>
	</g>
	<g>
		<rect x="21.7" y="3.9" width="1.8" height="11.2"/>
	</g>
	<g>
		<rect x="28.4" y="3.9" width="1.8" height="11.2"/>
	</g>
	<g>
		<rect x="31.8" y="3.9" width="1.8" height="15.4"/>
	</g>
	<g>
		<rect x="38.5" y="3.9" width="1.8" height="11.2"/>
	</g>
	<g>
		<rect x="41.8" y="3.9" width="1.8" height="11.2"/>
	</g>
	<g>
		<rect x="45.2" y="3.9" width="1.8" height="11.2"/>
	</g>
	<g>
		<rect x="35.1" y="3.9" width="1.8" height="11.2"/>
	</g>
	<g>
		<rect x="25.1" y="3.9" width="1.8" height="11.2"/>
	</g>
	<g>
		<rect x="152.4" y="3.9" width="1.8" height="11.2"/>
	</g>
	<g>
		<rect x="155.8" y="3.9" width="1.8" height="11.2"/>
	</g>
	<g>
		<rect x="162.5" y="3.9" width="1.8" height="11.2"/>
	</g>
	<g>
		<rect x="165.9" y="3.9" width="1.8" height="15.4"/>
	</g>
	<g>
		<rect x="172.6" y="3.9" width="1.8" height="11.2"/>
	</g>
	<g>
		<rect x="175.9" y="3.9" width="1.8" height="11.2"/>
	</g>
	<g>
		<rect x="179.3" y="3.9" width="1.8" height="11.2"/>
	</g>
	<g>
		<rect x="169.2" y="3.9" width="1.8" height="11.2"/>
	</g>
	<g>
		<rect x="159.2" y="3.9" width="1.8" height="11.2"/>
	</g>
	<g>
		<rect x="186" y="3.9" width="1.8" height="11.2"/>
	</g>
	<g>
		<rect x="189.3" y="3.9" width="1.8" height="11.2"/>
	</g>
	<g>
		<rect x="196" y="3.9" width="1.8" height="11.2"/>
	</g>
	<g>
		<rect x="199.4" y="3.9" width="1.8" height="15.4"/>
	</g>
	<g>
		<rect x="206.1" y="3.9" width="1.8" height="11.2"/>
	</g>
	<g>
		<rect x="209.4" y="3.9" width="1.8" height="11.2"/>
	</g>
	<g>
		<rect x="212.8" y="3.9" width="1.8" height="11.2"/>
	</g>
	<g>
		<rect x="202.7" y="3.9" width="1.8" height="11.2"/>
	</g>
	<g>
		<rect x="192.7" y="3.9" width="1.8" height="11.2"/>
	</g>
	<g>
		<rect x="219.5" y="3.9" width="1.8" height="11.2"/>
	</g>
	<g>
		<rect x="222.9" y="3.9" width="1.8" height="11.2"/>
	</g>
	<g>
		<rect x="229.6" y="3.9" width="1.8" height="11.2"/>
	</g>
	<g>
		<rect x="232.9" y="3.9" width="1.8" height="15.4"/>
	</g>
	<g>
		<rect x="239.6" y="3.9" width="1.8" height="11.2"/>
	</g>
	<g>
		<rect x="243" y="3.9" width="1.8" height="11.2"/>
	</g>
	<g>
		<rect x="246.3" y="3.9" width="1.8" height="11.2"/>
	</g>
	<g>
		<rect x="236.3" y="3.9" width="1.8" height="11.2"/>
	</g>
	<g>
		<rect x="226.2" y="3.9" width="1.8" height="11.2"/>
	</g>
	<g>
		<rect x="253" y="3.9" width="1.8" height="11.2"/>
	</g>
	<g>
		<rect x="256.4" y="3.9" width="1.8" height="11.2"/>
	</g>
	<g>
		<rect x="263.1" y="3.9" width="1.8" height="11.2"/>
	</g>
	<g>
		<rect x="266.4" y="3.9" width="1.8" height="15.4"/>
	</g>
	<g>
		<rect x="273.1" y="3.9" width="1.8" height="11.2"/>
	</g>
	<g>
		<rect x="276.5" y="3.9" width="1.8" height="11.2"/>
	</g>
	<g>
		<rect x="279.9" y="3.9" width="1.8" height="11.2"/>
	</g>
	<g>
		<rect x="269.8" y="3.9" width="1.8" height="11.2"/>
	</g>
	<g>
		<rect x="259.7" y="3.9" width="1.8" height="11.2"/>
	</g>
</g>
<rect class="st0" width="6" height="30"/>
<rect x="294" class="st0" width="6" height="30"/>
</svg>
